C:\Users\angel\Documents\School\Semester 4\Java\NetBeans\java-individual-project\RealEstateManager\src\main\java\com\mycompany\realestatemanager\AddContractorController.java
C:\Users\angel\Documents\School\Semester 4\Java\NetBeans\java-individual-project\RealEstateManager\src\main\java\com\mycompany\realestatemanager\DisplayMaintenanceController.java
C:\Users\angel\Documents\School\Semester 4\Java\NetBeans\java-individual-project\RealEstateManager\src\main\java\com\mycompany\realestatemanager\AddCondoController.java
C:\Users\angel\Documents\School\Semester 4\Java\NetBeans\java-individual-project\RealEstateManager\src\main\java\com\mycompany\realestatemanager\AddTenantController.java
C:\Users\angel\Documents\School\Semester 4\Java\NetBeans\java-individual-project\RealEstateManager\src\main\java\com\mycompany\realestatemanager\FinancialInstitution.java
C:\Users\angel\Documents\School\Semester 4\Java\NetBeans\java-individual-project\RealEstateManager\src\main\java\com\mycompany\realestatemanager\DisplayContractorController.java
C:\Users\angel\Documents\School\Semester 4\Java\NetBeans\java-individual-project\RealEstateManager\src\main\java\com\mycompany\realestatemanager\Property.java
C:\Users\angel\Documents\School\Semester 4\Java\NetBeans\java-individual-project\RealEstateManager\src\main\java\com\mycompany\realestatemanager\Tenant.java
C:\Users\angel\Documents\School\Semester 4\Java\NetBeans\java-individual-project\RealEstateManager\src\main\java\com\mycompany\realestatemanager\Plex.java
C:\Users\angel\Documents\School\Semester 4\Java\NetBeans\java-individual-project\RealEstateManager\src\main\java\com\mycompany\realestatemanager\MaintenanceViewController.java
C:\Users\angel\Documents\School\Semester 4\Java\NetBeans\java-individual-project\RealEstateManager\src\main\java\com\mycompany\realestatemanager\Mortgage.java
C:\Users\angel\Documents\School\Semester 4\Java\NetBeans\java-individual-project\RealEstateManager\src\main\java\com\mycompany\realestatemanager\Taxes.java
C:\Users\angel\Documents\School\Semester 4\Java\NetBeans\java-individual-project\RealEstateManager\src\main\java\com\mycompany\realestatemanager\AddHouseController.java
C:\Users\angel\Documents\School\Semester 4\Java\NetBeans\java-individual-project\RealEstateManager\src\main\java\com\mycompany\realestatemanager\App.java
C:\Users\angel\Documents\School\Semester 4\Java\NetBeans\java-individual-project\RealEstateManager\src\main\java\com\mycompany\realestatemanager\PropertyController.java
C:\Users\angel\Documents\School\Semester 4\Java\NetBeans\java-individual-project\RealEstateManager\src\main\java\com\mycompany\realestatemanager\AddFIController.java
C:\Users\angel\Documents\School\Semester 4\Java\NetBeans\java-individual-project\RealEstateManager\src\main\java\com\mycompany\realestatemanager\Condo.java
C:\Users\angel\Documents\School\Semester 4\Java\NetBeans\java-individual-project\RealEstateManager\src\main\java\com\mycompany\realestatemanager\MainMenuController.java
C:\Users\angel\Documents\School\Semester 4\Java\NetBeans\java-individual-project\RealEstateManager\src\main\java\module-info.java
C:\Users\angel\Documents\School\Semester 4\Java\NetBeans\java-individual-project\RealEstateManager\src\main\java\com\mycompany\realestatemanager\ContractorViewController.java
C:\Users\angel\Documents\School\Semester 4\Java\NetBeans\java-individual-project\RealEstateManager\src\main\java\com\mycompany\realestatemanager\Maintenance.java
C:\Users\angel\Documents\School\Semester 4\Java\NetBeans\java-individual-project\RealEstateManager\src\main\java\com\mycompany\realestatemanager\House.java
C:\Users\angel\Documents\School\Semester 4\Java\NetBeans\java-individual-project\RealEstateManager\src\main\java\com\mycompany\realestatemanager\DisplayPropertyController.java
C:\Users\angel\Documents\School\Semester 4\Java\NetBeans\java-individual-project\RealEstateManager\src\main\java\com\mycompany\realestatemanager\FIViewController.java
C:\Users\angel\Documents\School\Semester 4\Java\NetBeans\java-individual-project\RealEstateManager\src\main\java\com\mycompany\realestatemanager\ChoosePropertyTypeController.java
C:\Users\angel\Documents\School\Semester 4\Java\NetBeans\java-individual-project\RealEstateManager\src\main\java\com\mycompany\realestatemanager\TenantViewController.java
C:\Users\angel\Documents\School\Semester 4\Java\NetBeans\java-individual-project\RealEstateManager\src\main\java\com\mycompany\realestatemanager\PropertyViewController.java
C:\Users\angel\Documents\School\Semester 4\Java\NetBeans\java-individual-project\RealEstateManager\src\main\java\com\mycompany\realestatemanager\AddPlexController.java
C:\Users\angel\Documents\School\Semester 4\Java\NetBeans\java-individual-project\RealEstateManager\src\main\java\com\mycompany\realestatemanager\DisplayFIController.java
C:\Users\angel\Documents\School\Semester 4\Java\NetBeans\java-individual-project\RealEstateManager\src\main\java\com\mycompany\realestatemanager\Contractor.java
C:\Users\angel\Documents\School\Semester 4\Java\NetBeans\java-individual-project\RealEstateManager\src\main\java\com\mycompany\realestatemanager\AddMaintenanceController.java
C:\Users\angel\Documents\School\Semester 4\Java\NetBeans\java-individual-project\RealEstateManager\src\main\java\com\mycompany\realestatemanager\DBConnection.java
C:\Users\angel\Documents\School\Semester 4\Java\NetBeans\java-individual-project\RealEstateManager\src\main\java\com\mycompany\realestatemanager\DisplayTenantController.java
